{
  "first": true,
  "last": false,
  "number": 1,
  "numberOfElements": 25,
  "size": 25,
  "totalElements": 47944,
  "totalPages": 1918,
  "content": [
    {
      "quoteID": "24TBY56",
      "source": "G",
      "quoteDate": "2019-04-16 14:11:42.237000",
      "origin": { "country": null, "city": "ARK", "state": "VA", "zip": "23003" },
      "dest": { "country": null, "city": "PUEBLO", "state": "CO", "zip": "81001" },
      "serviceLevel": "Guaranteed LTL Standard 12PM",
      "estCharges": 378.88,
      "deliveryDate": "04/19/2019",
      "deliveryTime": "12:00 PM"
    },
    {
      "quoteID": "14TBY56",
      "source": "G",
      "quoteDate": "2019-04-16 14:11:41.771000",
      "origin": { "country": null, "city": "ARK", "state": "VA", "zip": "23003" },
      "dest": { "country": null, "city": "PUEBLO", "state": "CO", "zip": "81001" },
      "serviceLevel": "Guaranteed LTL Standard 5PM",
      "estCharges": 234.5,
      "deliveryDate": "04/19/2019",
      "deliveryTime": "05:00 PM"
    },
    {
      "quoteID": "L4TBY56",
      "source": "G",
      "quoteDate": "2019-04-16 14:11:40.957000",
      "origin": { "country": null, "city": "ARK", "state": "VA", "zip": "23003" },
      "dest": { "country": null, "city": "PUEBLO", "state": "CO", "zip": "81001" },
      "serviceLevel": "LTL Standard Transit",
      "estCharges": 194.5,
      "deliveryDate": "04/19/2019",
      "deliveryTime": "05:00 PM"
    },
    {
      "quoteID": "XZFHSSM",
      "source": "G",
      "quoteDate": "2019-04-16 14:09:41.258000",
      "origin": { "country": null, "city": "ARVONIA", "state": "VA", "zip": "23004" },
      "dest": { "country": null, "city": "PUEBLO", "state": "CO", "zip": "81001" },
      "serviceLevel": "Guaranteed Exclusive Use",
      "estCharges": 7995.0,
      "deliveryDate": "04/18/2019",
      "deliveryTime": "01:00 PM"
    },
    {
      "quoteID": "EZFHSSM",
      "source": "G",
      "quoteDate": "2019-04-16 14:09:40.944000",
      "origin": { "country": null, "city": "ARVONIA", "state": "VA", "zip": "23004" },
      "dest": { "country": null, "city": "PUEBLO", "state": "CO", "zip": "81001" },
      "serviceLevel": "Guaranteed V/TL Economy",
      "estCharges": 1296.3,
      "deliveryDate": "04/23/2019",
      "deliveryTime": "05:00 PM"
    },
    {
      "quoteID": "SZFHSSM",
      "source": "G",
      "quoteDate": "2019-04-16 14:09:40.541000",
      "origin": { "country": null, "city": "ARVONIA", "state": "VA", "zip": "23004" },
      "dest": { "country": null, "city": "PUEBLO", "state": "CO", "zip": "81001" },
      "serviceLevel": "Guaranteed V/TL Standard",
      "estCharges": 1385.7,
      "deliveryDate": "04/22/2019",
      "deliveryTime": "05:00 PM"
    },
    {
      "quoteID": "VZFHSSM",
      "source": "G",
      "quoteDate": "2019-04-16 14:09:39.857000",
      "origin": { "country": null, "city": "ARVONIA", "state": "VA", "zip": "23004" },
      "dest": { "country": null, "city": "PUEBLO", "state": "CO", "zip": "81001" },
      "serviceLevel": "Volume and Truckload Basic",
      "estCharges": 894.0,
      "deliveryDate": "04/22/2019",
      "deliveryTime": "05:00 PM"
    },
    {
      "quoteID": "2ZFHSSM",
      "source": "G",
      "quoteDate": "2019-04-16 14:09:38.904000",
      "origin": { "country": null, "city": "ARVONIA", "state": "VA", "zip": "23004" },
      "dest": { "country": null, "city": "PUEBLO", "state": "CO", "zip": "81001" },
      "serviceLevel": "Guaranteed LTL Standard 12PM",
      "estCharges": 378.88,
      "deliveryDate": "04/22/2019",
      "deliveryTime": "12:00 PM"
    },
    {
      "quoteID": "1ZFHSSM",
      "source": "G",
      "quoteDate": "2019-04-16 14:09:38.245000",
      "origin": { "country": null, "city": "ARVONIA", "state": "VA", "zip": "23004" },
      "dest": { "country": null, "city": "PUEBLO", "state": "CO", "zip": "81001" },
      "serviceLevel": "Guaranteed LTL Standard 5PM",
      "estCharges": 234.5,
      "deliveryDate": "04/22/2019",
      "deliveryTime": "05:00 PM"
    },
    {
      "quoteID": "LZFHSSM",
      "source": "G",
      "quoteDate": "2019-04-16 14:09:35.303000",
      "origin": { "country": null, "city": "ARVONIA", "state": "VA", "zip": "23004" },
      "dest": { "country": null, "city": "PUEBLO", "state": "CO", "zip": "81001" },
      "serviceLevel": "LTL Standard Transit",
      "estCharges": 194.5,
      "deliveryDate": "04/22/2019",
      "deliveryTime": "05:00 PM"
    },
    {
      "quoteID": "XP5C65Y",
      "source": "G",
      "quoteDate": "2019-04-16 14:08:09.965000",
      "origin": { "country": null, "city": "ARVONIA", "state": "VA", "zip": "23004" },
      "dest": { "country": null, "city": "PUEBLO", "state": "CO", "zip": "81001" },
      "serviceLevel": "Guaranteed Exclusive Use",
      "estCharges": 7995.0,
      "deliveryDate": "04/18/2019",
      "deliveryTime": "05:07 AM"
    },
    {
      "quoteID": "EP5C65Y",
      "source": "G",
      "quoteDate": "2019-04-16 14:08:09.633000",
      "origin": { "country": null, "city": "ARVONIA", "state": "VA", "zip": "23004" },
      "dest": { "country": null, "city": "PUEBLO", "state": "CO", "zip": "81001" },
      "serviceLevel": "Guaranteed V/TL Economy",
      "estCharges": 1296.3,
      "deliveryDate": "04/23/2019",
      "deliveryTime": "05:00 PM"
    },
    {
      "quoteID": "SP5C65Y",
      "source": "G",
      "quoteDate": "2019-04-16 14:08:09.351000",
      "origin": { "country": null, "city": "ARVONIA", "state": "VA", "zip": "23004" },
      "dest": { "country": null, "city": "PUEBLO", "state": "CO", "zip": "81001" },
      "serviceLevel": "Guaranteed V/TL Standard",
      "estCharges": 1385.7,
      "deliveryDate": "04/22/2019",
      "deliveryTime": "05:00 PM"
    },
    {
      "quoteID": "VP5C65Y",
      "source": "G",
      "quoteDate": "2019-04-16 14:08:08.375000",
      "origin": { "country": null, "city": "ARVONIA", "state": "VA", "zip": "23004" },
      "dest": { "country": null, "city": "PUEBLO", "state": "CO", "zip": "81001" },
      "serviceLevel": "Volume and Truckload Basic",
      "estCharges": 894.0,
      "deliveryDate": "04/22/2019",
      "deliveryTime": "05:00 PM"
    },
    {
      "quoteID": "2P5C65Y",
      "source": "G",
      "quoteDate": "2019-04-16 14:08:07.583000",
      "origin": { "country": null, "city": "ARVONIA", "state": "VA", "zip": "23004" },
      "dest": { "country": null, "city": "PUEBLO", "state": "CO", "zip": "81001" },
      "serviceLevel": "Guaranteed LTL Standard 12PM",
      "estCharges": 378.88,
      "deliveryDate": "04/22/2019",
      "deliveryTime": "12:00 PM"
    },
    {
      "quoteID": "1P5C65Y",
      "source": "G",
      "quoteDate": "2019-04-16 14:08:07.057000",
      "origin": { "country": null, "city": "ARVONIA", "state": "VA", "zip": "23004" },
      "dest": { "country": null, "city": "PUEBLO", "state": "CO", "zip": "81001" },
      "serviceLevel": "Guaranteed LTL Standard 5PM",
      "estCharges": 234.5,
      "deliveryDate": "04/22/2019",
      "deliveryTime": "05:00 PM"
    },
    {
      "quoteID": "LP5C65Y",
      "source": "G",
      "quoteDate": "2019-04-16 14:08:03.519000",
      "origin": { "country": null, "city": "ARVONIA", "state": "VA", "zip": "23004" },
      "dest": { "country": null, "city": "PUEBLO", "state": "CO", "zip": "81001" },
      "serviceLevel": "LTL Standard Transit",
      "estCharges": 194.5,
      "deliveryDate": "04/22/2019",
      "deliveryTime": "05:00 PM"
    },
    {
      "quoteID": "XTF64C3",
      "source": "G",
      "quoteDate": "2019-04-16 12:48:15.095000",
      "origin": { "country": null, "city": "HENRICO", "state": "VA", "zip": "23233" },
      "dest": { "country": null, "city": "ATLANTA", "state": "GA", "zip": "30307" },
      "serviceLevel": "Guaranteed Exclusive Use",
      "estCharges": 2871.0,
      "deliveryDate": "04/25/2019",
      "deliveryTime": "06:00 PM"
    },
    {
      "quoteID": "ETF64C3",
      "source": "G",
      "quoteDate": "2019-04-16 12:48:14.906000",
      "origin": { "country": null, "city": "HENRICO", "state": "VA", "zip": "23233" },
      "dest": { "country": null, "city": "ATLANTA", "state": "GA", "zip": "30307" },
      "serviceLevel": "Guaranteed V/TL Economy",
      "estCharges": 558.25,
      "deliveryDate": "04/29/2019",
      "deliveryTime": "05:00 PM"
    },
    {
      "quoteID": "STF64C3",
      "source": "G",
      "quoteDate": "2019-04-16 12:48:14.671000",
      "origin": { "country": null, "city": "HENRICO", "state": "VA", "zip": "23233" },
      "dest": { "country": null, "city": "ATLANTA", "state": "GA", "zip": "30307" },
      "serviceLevel": "Guaranteed V/TL Standard",
      "estCharges": 596.75,
      "deliveryDate": "04/26/2019",
      "deliveryTime": "05:00 PM"
    },
    {
      "quoteID": "VTF64C3",
      "source": "G",
      "quoteDate": "2019-04-16 12:48:14.383000",
      "origin": { "country": null, "city": "HENRICO", "state": "VA", "zip": "23233" },
      "dest": { "country": null, "city": "ATLANTA", "state": "GA", "zip": "30307" },
      "serviceLevel": "Volume and Truckload Basic",
      "estCharges": 385.0,
      "deliveryDate": "04/26/2019",
      "deliveryTime": "05:00 PM"
    },
    {
      "quoteID": "XV43SNB",
      "source": "G",
      "quoteDate": "2019-04-16 12:47:28.184000",
      "origin": { "country": null, "city": "HENRICO", "state": "VA", "zip": "23233" },
      "dest": { "country": null, "city": "ATLANTA", "state": "GA", "zip": "30307" },
      "serviceLevel": "Guaranteed Exclusive Use",
      "estCharges": 2871.0,
      "deliveryDate": "04/25/2019",
      "deliveryTime": "06:00 PM"
    },
    {
      "quoteID": "EV43SNB",
      "source": "G",
      "quoteDate": "2019-04-16 12:47:27.989000",
      "origin": { "country": null, "city": "HENRICO", "state": "VA", "zip": "23233" },
      "dest": { "country": null, "city": "ATLANTA", "state": "GA", "zip": "30307" },
      "serviceLevel": "Guaranteed V/TL Economy",
      "estCharges": 540.85,
      "deliveryDate": "04/29/2019",
      "deliveryTime": "05:00 PM"
    },
    {
      "quoteID": "SV43SNB",
      "source": "G",
      "quoteDate": "2019-04-16 12:47:27.783000",
      "origin": { "country": null, "city": "HENRICO", "state": "VA", "zip": "23233" },
      "dest": { "country": null, "city": "ATLANTA", "state": "GA", "zip": "30307" },
      "serviceLevel": "Guaranteed V/TL Standard",
      "estCharges": 578.15,
      "deliveryDate": "04/26/2019",
      "deliveryTime": "05:00 PM"
    },
    {
      "quoteID": "VV43SNB",
      "source": "G",
      "quoteDate": "2019-04-16 12:47:27.515000",
      "origin": { "country": null, "city": "HENRICO", "state": "VA", "zip": "23233" },
      "dest": { "country": null, "city": "ATLANTA", "state": "GA", "zip": "30307" },
      "serviceLevel": "Volume and Truckload Basic",
      "estCharges": 373.0,
      "deliveryDate": "04/26/2019",
      "deliveryTime": "05:00 PM"
    }
  ]
}
